Sharafi_HW8
…
## [[1]]
## [1] "apples"   " pears"   " "        " bananas"

14.4.5.1 #2 " " expression keeps the spaces as blank and also holds punctuation. 14.5.1 #2 What are the five most common words in sentences?

14.5.1 #2

word <-  unlist(str_extract_all(sentences, boundary("word")))
word <- tibble(word) %>%
  mutate(word = str_to_upper(word)) %>%
  count(word, sort = TRUE)
word 

## # A tibble: 1,904 x 2
##    word      n
##    <chr> <int>
##  1 THE     751
##  2 A       202
##  3 OF      132
##  4 TO      123
##  5 AND     118
##  6 IN       87
##  7 IS       81
##  8 WAS      66
##  9 ON       60
## 10 WITH     51
## # ... with 1,894 more rows
…
library(lubridate)

## 
## Attaching package: 'lubridate'

## The following object is masked from 'package:base':
## 
##     date

daily3$year <- year(daily3$date)
daily3$month <- month(daily3$date)
monthly.o3 <- daily3 %>% select(site, year, month,o3) 
monthly.o3

## # A tibble: 255,582 x 4
##    site   year month      o3
##    <fct> <dbl> <dbl>   <dbl>
##  1 2001   1985     1 0.0170 
##  2 2001   1985     1 0.0157 
##  3 2001   1985     1 0.0165 
##  4 2001   1985     1 0.0157 
##  5 2001   1985     1 0.0196 
##  6 2001   1985     1 0.0148 
##  7 2001   1985     1 0.0135 
##  8 2001   1985     1 0.01   
##  9 2001   1985     1 0.00609
## 10 2001   1985     1 0.00870
## # ... with 255,572 more rows

Question 7

Ozone is generally assumed to have weak diurnal variations, so regards our data collected daily, I added day column to the data frame

daily3$day <- day(daily3$date)
daily.o3 <- daily3 %>% select(site, year, month,day,o3) 
daily.o3

## # A tibble: 255,582 x 5
##    site   year month   day      o3
##    <fct> <dbl> <dbl> <int>   <dbl>
##  1 2001   1985     1     1 0.0170 
##  2 2001   1985     1     2 0.0157 
##  3 2001   1985     1     3 0.0165 
##  4 2001   1985     1     4 0.0157 
##  5 2001   1985     1     5 0.0196 
##  6 2001   1985     1     6 0.0148 
##  7 2001   1985     1     7 0.0135 
##  8 2001   1985     1     8 0.01   
##  9 2001   1985     1     9 0.00609
## 10 2001   1985     1    10 0.00870
## # ... with 255,572 more rows
…
